^C:\DEV\C++\PLAYINGCARDS\JCJ.PLAYINGCARDS\JCJ.PLAYINGCARDS\DEBUG\MAIN.OBJ
C:\DEV\C++\PLAYINGCARDS\JCJ.PLAYINGCARDS\DEBUG\JCJ.PLAYINGCARDS.ILK
C:\DEV\C++\PLAYINGCARDS\JCJ.PLAYINGCARDS\DEBUG\JCJ.PLAYINGCARDS.EXE
C:\DEV\C++\PLAYINGCARDS\JCJ.PLAYINGCARDS\DEBUG\JCJ.PLAYINGCARDS.PDB
